<?xml version="1.0" encoding="utf-8"?>
<!-- Generator: Adobe Illustrator 19.1.0, SVG Export Plug-In . SVG Version: 6.00 Build 0)  -->
<!DOCTYPE svg PUBLIC "-//W3C//DTD SVG 1.1//EN" "http://www.w3.org/Graphics/SVG/1.1/DTD/svg11.dtd">
<svg version="1.1" xmlns="http://www.w3.org/2000/svg" xmlns:xlink="http://www.w3.org/1999/xlink" x="0px" y="0px"
	 viewBox="0 0 234 246" enable-background="new 0 0 234 246" xml:space="preserve">
<g id="Layer_1" display="none">
	<g display="inline">
		<path fill="#C4CC94" d="M49.9,72.2c0.4,0,3.6,0.4,5.6,1.5c0.3,0.2,0.8,0.5,1.5,0.8c2.6,1.4,8.6,4.7,10.7,5.3
			c1.7,0.5,6.3,0.7,9.3,0.8l-0.4-17.3c-0.2-1.7-3.3-24.4-4-28.8c-0.4-2.1,0.2-5.4,1.1-8.6L39.2,0.2v72l10.6-0.1L49.9,72.2z"/>
		<path fill="#E6E7E8" d="M89,94.6c0,0.7,0.1,1.2,0.4,1.4c0.2,0.2,0.6,0.2,0.6,0.2h0l0.1,0l3.5,0l0,12.2h9.4l-0.3-16H90.6
			C89.9,92.5,89,92.9,89,94.6z"/>
		<path fill="#758339" d="M77.1,84.2c-2.9-0.1-8.2-0.3-10.4-1c-2.3-0.7-7.1-3.3-11.4-5.6c-0.6-0.3-1.1-0.6-1.5-0.8
			c-1.1-0.6-3.3-1-4.2-1.1l-10.4,0.1V76l-3.3,0c-5.9,0-8.8,0-15.7,4c-6.7,3.9-8.9,14.3-9.2,15.6v12.9h66.7L77.1,84.2z"/>
		<path fill="#C4CC94" d="M127.5,88.7c0.9,2,1.4,3.9,1.8,5.1c0.1,0.3,0.2,0.7,0.3,0.9c0.6,0.9,1.6,1.9,3.1,2.9c0,0,4.5,3.5,5.5,5.8
			c0.6,1.4,1.2,3,1.4,5h24.7v-8.2c0-6-5.8-11.1-6.3-11.5L139.5,75C135.6,81.4,129.9,86.7,127.5,88.7z"/>
		<path fill="#E6E7E8" d="M7.4,112H1l17.2,19.4c0.6,0.5,3.9,3.1,7.4,4.6c4.1,1.8,49.8,20.3,50.3,20.5l1.9,0.8v-45.3H7.4V112z"/>
		<path fill="#E6E7E8" d="M175,128.5c7.4,3.4,16,0.2,16.7,0c0.9-0.4,9.1-4.1,17.1-3.5l-18.1-12.9h-23h0v1.3
			C167.9,116.6,169,125.7,175,128.5z"/>
		<path fill="#E6E7E8" d="M106.7,142.7h20.8c8,0,8.4-8.3,8.4-8.7l0-21.9h-29.2V142.7z"/>
		<path fill="#C4CC94" d="M167.8,108.4h17.7L166.8,95c0.6,1.6,1,3.4,1,5.2V108.4z"/>
		<path fill="#C4CC94" d="M125.5,85c0.1,0.1,0.2,0.3,0.3,0.4c2.5-2.2,7.5-7,10.8-12.7l-30.8-22.9l0.5,30.1h8.9
			C115.5,79.9,122.2,80.3,125.5,85z"/>
		<path fill="#E6E7E8" d="M134.8,104.9c-0.4-0.9-3.1-3.4-4.3-4.3c-0.7-0.5-2.8-2.1-4-3.9c-0.3-0.4-0.4-0.8-0.7-1.8
			c-0.5-1.8-1.4-5-3.3-7.8c-2.2-3.2-7.4-3.5-7.4-3.5l-8.8,0l0.4,25h29.1C135.6,107.2,135.2,106,134.8,104.9z"/>
		<path fill="#E6E7E8" d="M232.5,141.9l-9.3-6.6c-3.4-2.2-7-4.4-10.1-5.6c-8.2-3.3-19.8,2.1-19.9,2.2l-0.1,0
			c-0.4,0.2-10.6,4.1-19.6,0c-9.4-4.3-9.4-18.9-9.4-19.5l0-0.2h-4.7h-19.8v21.9c-0.1,4.3-2.8,12.2-12,12.2h-20.8v36.2
			c12.9,10.1,33.8,19.4,46.5,24.5c-0.2-0.2-0.4-0.4-0.6-0.6c-6.6-6.1-5.9-19.9-5-27.6c0.5-4.1,3.4-12.8,8.1-18.4
			c4.8-5.8,15.7-6.5,16.2-6.5l0.1,0h40.9c5.6,0,7.3-0.7,9.3-1.5c0.9-0.3,1.8-0.7,3.1-1.1c2.3-0.7,6-5.1,8.4-8.5
			C233.4,142.6,233,142.2,232.5,141.9z"/>
		<path fill="#C4CC94" d="M102.1,47.1L76.8,28.2c-0.6,2.3-0.9,4.4-0.7,5.6c0.6,3.4,2.5,17.4,3.5,24.7h22.7L102.1,47.1z"/>
		<path fill="#E6E7E8" d="M81.4,159l4.9,2.1l0.2,0.2c0.2,0.1,1.6,1.4,2.8,3.4c0.9,1.6,4.3,7.5,4.9,8.5c1.7,2,4.3,4.9,5,5.4
			c0.5,0.4,2.2,1.3,3.9,2.1v-68.5H81.4L81.4,159z"/>
		<path fill="#C4CC94" d="M86.2,82c1.3,0.7,4.2,2.2,5.7,2.2c1.1,0,4.9-1.7,7.8-3.3c0.4-0.3,1.4-0.9,3-1l-0.3-17.8H80.1
			c0.1,0.4,0.1,0.7,0.1,0.8l0,0.2l0.4,17.6c1.5,0.1,3.6,0.4,4.5,0.8C85.4,81.6,85.7,81.8,86.2,82z"/>
		<path fill="#C4CC94" d="M90,99.9c-0.6,0-1.9-0.1-3.1-1.2c-0.7-0.7-1.5-1.9-1.5-4.1c0-2.2,0.9-3.5,1.6-4.2c1.5-1.5,3.4-1.5,3.6-1.5
			h12.2l-0.1-5.3c-0.5,0.1-0.8,0.2-0.9,0.3l-0.2,0.2l-0.1,0c-1.6,0.9-7.1,3.8-9.6,3.8c-2.1,0-4.9-1.4-7.3-2.6
			c-0.3-0.2-0.6-0.3-0.8-0.4c-0.4-0.1-1.6-0.3-2.9-0.5l0.6,24.1h8.7L90,99.9z"/>
		<polygon fill="#E6E7E8" points="105.8,49.8 106,62.1 122.2,62.1 		"/>
		<g>
			<polygon fill="#C4CC94" points="99.2,108.5 103.1,108.5 103,103.4 99.2,103.4 			"/>
			<path fill="#C4CC94" d="M110.6,146.3h-3.9v36.2c1.2,1,2.5,1.9,3.9,2.8V146.3z"/>
			<rect x="106.7" y="112.1" fill="#C4CC94" width="3.9" height="30.5"/>
			<path fill="#C4CC94" d="M99.2,178.6c0.6,0.4,2.2,1.3,3.9,2.1v-68.5h-3.9V178.6z"/>
		</g>
	</g>
	<g display="inline">
		<g>
			<path fill="#939598" d="M165.3,54.3h-2l-7.2-11.6l-0.1,0v11.6h-2v-15h2l7.2,11.6l0.1,0V39.3h2V54.3z"/>
		</g>
	</g>
	<g display="inline">
		<g>
			<path fill="#939598" d="M85.2,227.3c0,0.5-0.1,0.9-0.2,1.3c-0.2,0.4-0.4,0.7-0.7,1l1.2,1.1l-0.7,0.6l-1.3-1.3
				c-0.2,0.1-0.4,0.1-0.6,0.2c-0.2,0-0.4,0.1-0.6,0.1c-0.8,0-1.5-0.3-2-0.9c-0.5-0.6-0.8-1.3-0.8-2.2V226c0-0.9,0.3-1.6,0.8-2.2
				c0.5-0.6,1.2-0.9,2-0.9c0.9,0,1.6,0.3,2.1,0.9c0.5,0.6,0.8,1.3,0.8,2.2V227.3z M84.2,226c0-0.7-0.2-1.2-0.5-1.6
				c-0.4-0.4-0.8-0.6-1.4-0.6c-0.6,0-1,0.2-1.3,0.6c-0.3,0.4-0.5,1-0.5,1.6v1.3c0,0.7,0.2,1.2,0.5,1.6c0.3,0.4,0.8,0.6,1.3,0.6
				c0.6,0,1.1-0.2,1.4-0.6c0.3-0.4,0.5-1,0.5-1.6V226z"/>
			<path fill="#939598" d="M92.8,223.1v4.8c0,0.8-0.3,1.4-0.8,1.8c-0.5,0.4-1.2,0.6-2,0.6c-0.8,0-1.4-0.2-1.9-0.6
				c-0.5-0.4-0.7-1-0.7-1.8v-4.8h1v4.8c0,0.5,0.2,0.9,0.5,1.2s0.7,0.4,1.2,0.4c0.5,0,1-0.1,1.3-0.4c0.3-0.3,0.5-0.7,0.5-1.2v-4.8
				H92.8z"/>
			<path fill="#939598" d="M99.6,226.9h-3.3v2.5h3.8v0.8h-4.7v-7.1h4.7v0.8h-3.7v2.3h3.3V226.9z"/>
			<path fill="#939598" d="M106.4,226.9h-3.3v2.5h3.8v0.8h-4.7v-7.1h4.7v0.8h-3.7v2.3h3.3V226.9z"/>
			<path fill="#939598" d="M114.4,230.2h-1l-3.4-5.5l0,0v5.5h-1v-7.1h1l3.4,5.5l0,0v-5.5h1V230.2z"/>
			<path fill="#939598" d="M125.7,227.9L125.7,227.9c0,0.7-0.2,1.3-0.7,1.7s-1.1,0.7-1.9,0.7c-0.8,0-1.5-0.3-2-0.9
				c-0.5-0.6-0.8-1.3-0.8-2.2V226c0-0.9,0.3-1.6,0.8-2.2c0.5-0.6,1.2-0.9,2-0.9s1.4,0.2,1.9,0.6c0.5,0.4,0.7,1,0.7,1.7l0,0h-0.9
				c0-0.5-0.1-0.9-0.4-1.2c-0.3-0.3-0.7-0.4-1.2-0.4c-0.5,0-1,0.2-1.3,0.6c-0.3,0.4-0.5,1-0.5,1.6v1.3c0,0.6,0.2,1.2,0.5,1.6
				c0.3,0.4,0.7,0.6,1.3,0.6c0.5,0,0.9-0.1,1.2-0.4s0.4-0.7,0.4-1.2H125.7z"/>
			<path fill="#939598" d="M129,227.1v3.1h-1v-7.1h2.6c0.8,0,1.4,0.2,1.8,0.5c0.4,0.3,0.6,0.8,0.6,1.5c0,0.4-0.1,0.7-0.3,1
				c-0.2,0.3-0.5,0.5-0.8,0.6c0.4,0.1,0.7,0.3,0.8,0.6c0.2,0.3,0.3,0.6,0.3,1.1v0.7c0,0.2,0,0.4,0.1,0.6s0.1,0.3,0.3,0.4v0.1h-1
				c-0.1-0.1-0.2-0.3-0.2-0.5s-0.1-0.4-0.1-0.7v-0.6c0-0.4-0.1-0.7-0.3-0.9s-0.5-0.4-0.9-0.4H129z M129,226.4h1.5
				c0.5,0,0.9-0.1,1.2-0.3c0.2-0.2,0.4-0.5,0.4-0.9c0-0.4-0.1-0.7-0.3-0.9c-0.2-0.2-0.6-0.3-1.1-0.3H129V226.4z"/>
			<path fill="#939598" d="M139.8,226.9h-3.3v2.5h3.8v0.8h-4.7v-7.1h4.7v0.8h-3.7v2.3h3.3V226.9z"/>
			<path fill="#939598" d="M146.7,226.9h-3.3v2.5h3.8v0.8h-4.7v-7.1h4.7v0.8h-3.7v2.3h3.3V226.9z"/>
			<path fill="#939598" d="M151.1,227h-0.8v3.2h-1v-7.1h1v3.1h0.7l2.5-3.1h1.1l0,0l-2.8,3.4l3,3.6l0,0h-1.1L151.1,227z"/>
			<path fill="#939598" d="M102.8,242.2h-1v-7.1h1V242.2z"/>
			<path fill="#939598" d="M111,242.2h-1l-3.4-5.5l0,0v5.5h-1v-7.1h1l3.4,5.5l0,0v-5.5h1V242.2z"/>
			<path fill="#939598" d="M117.6,240.4c0-0.3-0.1-0.6-0.4-0.8s-0.7-0.4-1.3-0.6c-0.8-0.2-1.3-0.4-1.8-0.8c-0.4-0.3-0.6-0.8-0.6-1.3
				c0-0.6,0.2-1,0.7-1.4c0.5-0.4,1-0.6,1.8-0.6c0.8,0,1.4,0.2,1.9,0.6c0.5,0.4,0.7,0.9,0.7,1.5l0,0h-0.9c0-0.4-0.1-0.8-0.4-1
				c-0.3-0.3-0.7-0.4-1.2-0.4c-0.5,0-0.8,0.1-1.1,0.3c-0.3,0.2-0.4,0.5-0.4,0.8c0,0.3,0.1,0.6,0.4,0.8c0.3,0.2,0.7,0.4,1.3,0.5
				c0.7,0.2,1.3,0.5,1.7,0.8c0.4,0.4,0.6,0.8,0.6,1.3c0,0.6-0.2,1-0.7,1.4c-0.5,0.3-1.1,0.5-1.8,0.5c-0.7,0-1.3-0.2-1.9-0.6
				c-0.5-0.4-0.8-0.9-0.8-1.5l0,0h0.9c0,0.5,0.2,0.8,0.5,1c0.3,0.2,0.8,0.4,1.2,0.4c0.5,0,0.9-0.1,1.2-0.3S117.6,240.7,117.6,240.4z
				"/>
			<path fill="#939598" d="M125.2,238.9h-3.3v2.5h3.8v0.8H121v-7.1h4.7v0.8h-3.7v2.3h3.3V238.9z"/>
			<path fill="#939598" d="M132.7,235.8h-2.3v6.4h-1v-6.4h-2.3v-0.8h5.5V235.8z"/>
		</g>
	</g>
	<polygon display="inline" fill="#939598" points="155.7,34.5 159.7,28.1 163.6,34.5 	"/>
</g>
<g id="Layer_2" display="none">
	<g display="inline">
		<g>
			<path fill="#939598" d="M165.3,54.3h-2l-7.2-11.6l-0.1,0v11.6h-2v-15h2l7.2,11.6l0.1,0V39.3h2V54.3z"/>
		</g>
	</g>
	<g display="inline">
		<g>
			<path fill="#939598" d="M85.2,227.3c0,0.5-0.1,0.9-0.2,1.3c-0.2,0.4-0.4,0.7-0.7,1l1.2,1.1l-0.7,0.6l-1.3-1.3
				c-0.2,0.1-0.4,0.1-0.6,0.2c-0.2,0-0.4,0.1-0.6,0.1c-0.8,0-1.5-0.3-2-0.9c-0.5-0.6-0.8-1.3-0.8-2.2V226c0-0.9,0.3-1.6,0.8-2.2
				c0.5-0.6,1.2-0.9,2-0.9c0.9,0,1.6,0.3,2.1,0.9c0.5,0.6,0.8,1.3,0.8,2.2V227.3z M84.2,226c0-0.7-0.2-1.2-0.5-1.6
				c-0.4-0.4-0.8-0.6-1.4-0.6c-0.6,0-1,0.2-1.3,0.6c-0.3,0.4-0.5,1-0.5,1.6v1.3c0,0.7,0.2,1.2,0.5,1.6c0.3,0.4,0.8,0.6,1.3,0.6
				c0.6,0,1.1-0.2,1.4-0.6c0.3-0.4,0.5-1,0.5-1.6V226z"/>
			<path fill="#939598" d="M92.8,223.1v4.8c0,0.8-0.3,1.4-0.8,1.8c-0.5,0.4-1.2,0.6-2,0.6c-0.8,0-1.4-0.2-1.9-0.6
				c-0.5-0.4-0.7-1-0.7-1.8v-4.8h1v4.8c0,0.5,0.2,0.9,0.5,1.2s0.7,0.4,1.2,0.4c0.5,0,1-0.1,1.3-0.4c0.3-0.3,0.5-0.7,0.5-1.2v-4.8
				H92.8z"/>
			<path fill="#939598" d="M99.6,226.9h-3.3v2.5h3.8v0.8h-4.7v-7.1h4.7v0.8h-3.7v2.3h3.3V226.9z"/>
			<path fill="#939598" d="M106.4,226.9h-3.3v2.5h3.8v0.8h-4.7v-7.1h4.7v0.8h-3.7v2.3h3.3V226.9z"/>
			<path fill="#939598" d="M114.4,230.2h-1l-3.4-5.5l0,0v5.5h-1v-7.1h1l3.4,5.5l0,0v-5.5h1V230.2z"/>
			<path fill="#939598" d="M125.7,227.9L125.7,227.9c0,0.7-0.2,1.3-0.7,1.7s-1.1,0.7-1.9,0.7c-0.8,0-1.5-0.3-2-0.9
				c-0.5-0.6-0.8-1.3-0.8-2.2V226c0-0.9,0.3-1.6,0.8-2.2c0.5-0.6,1.2-0.9,2-0.9s1.4,0.2,1.9,0.6c0.5,0.4,0.7,1,0.7,1.7l0,0h-0.9
				c0-0.5-0.1-0.9-0.4-1.2c-0.3-0.3-0.7-0.4-1.2-0.4c-0.5,0-1,0.2-1.3,0.6c-0.3,0.4-0.5,1-0.5,1.6v1.3c0,0.6,0.2,1.2,0.5,1.6
				c0.3,0.4,0.7,0.6,1.3,0.6c0.5,0,0.9-0.1,1.2-0.4s0.4-0.7,0.4-1.2H125.7z"/>
			<path fill="#939598" d="M129,227.1v3.1h-1v-7.1h2.6c0.8,0,1.4,0.2,1.8,0.5c0.4,0.3,0.6,0.8,0.6,1.5c0,0.4-0.1,0.7-0.3,1
				c-0.2,0.3-0.5,0.5-0.8,0.6c0.4,0.1,0.7,0.3,0.8,0.6c0.2,0.3,0.3,0.6,0.3,1.1v0.7c0,0.2,0,0.4,0.1,0.6s0.1,0.3,0.3,0.4v0.1h-1
				c-0.1-0.1-0.2-0.3-0.2-0.5s-0.1-0.4-0.1-0.7v-0.6c0-0.4-0.1-0.7-0.3-0.9s-0.5-0.4-0.9-0.4H129z M129,226.4h1.5
				c0.5,0,0.9-0.1,1.2-0.3c0.2-0.2,0.4-0.5,0.4-0.9c0-0.4-0.1-0.7-0.3-0.9c-0.2-0.2-0.6-0.3-1.1-0.3H129V226.4z"/>
			<path fill="#939598" d="M139.8,226.9h-3.3v2.5h3.8v0.8h-4.7v-7.1h4.7v0.8h-3.7v2.3h3.3V226.9z"/>
			<path fill="#939598" d="M146.7,226.9h-3.3v2.5h3.8v0.8h-4.7v-7.1h4.7v0.8h-3.7v2.3h3.3V226.9z"/>
			<path fill="#939598" d="M151.1,227h-0.8v3.2h-1v-7.1h1v3.1h0.7l2.5-3.1h1.1l0,0l-2.8,3.4l3,3.6l0,0h-1.1L151.1,227z"/>
			<path fill="#939598" d="M102.8,242.2h-1v-7.1h1V242.2z"/>
			<path fill="#939598" d="M111,242.2h-1l-3.4-5.5l0,0v5.5h-1v-7.1h1l3.4,5.5l0,0v-5.5h1V242.2z"/>
			<path fill="#939598" d="M117.6,240.4c0-0.3-0.1-0.6-0.4-0.8s-0.7-0.4-1.3-0.6c-0.8-0.2-1.3-0.4-1.8-0.8c-0.4-0.3-0.6-0.8-0.6-1.3
				c0-0.6,0.2-1,0.7-1.4c0.5-0.4,1-0.6,1.8-0.6c0.8,0,1.4,0.2,1.9,0.6c0.5,0.4,0.7,0.9,0.7,1.5l0,0h-0.9c0-0.4-0.1-0.8-0.4-1
				c-0.3-0.3-0.7-0.4-1.2-0.4c-0.5,0-0.8,0.1-1.1,0.3c-0.3,0.2-0.4,0.5-0.4,0.8c0,0.3,0.1,0.6,0.4,0.8c0.3,0.2,0.7,0.4,1.3,0.5
				c0.7,0.2,1.3,0.5,1.7,0.8c0.4,0.4,0.6,0.8,0.6,1.3c0,0.6-0.2,1-0.7,1.4c-0.5,0.3-1.1,0.5-1.8,0.5c-0.7,0-1.3-0.2-1.9-0.6
				c-0.5-0.4-0.8-0.9-0.8-1.5l0,0h0.9c0,0.5,0.2,0.8,0.5,1c0.3,0.2,0.8,0.4,1.2,0.4c0.5,0,0.9-0.1,1.2-0.3S117.6,240.7,117.6,240.4z
				"/>
			<path fill="#939598" d="M125.2,238.9h-3.3v2.5h3.8v0.8H121v-7.1h4.7v0.8h-3.7v2.3h3.3V238.9z"/>
			<path fill="#939598" d="M132.7,235.8h-2.3v6.4h-1v-6.4h-2.3v-0.8h5.5V235.8z"/>
		</g>
	</g>
	<polygon display="inline" fill="#939598" points="155.7,34.5 159.7,28.1 163.6,34.5 	"/>
	<g display="inline">
		<path fill="#758339" d="M49.9,72.2c0.4,0,3.6,0.4,5.6,1.5c0.3,0.2,0.8,0.5,1.5,0.8c2.6,1.4,8.6,4.7,10.7,5.3
			c1.7,0.5,6.3,0.7,9.3,0.8l-0.4-17.3c-0.2-1.7-3.3-24.4-4-28.8c-0.4-2.1,0.2-5.4,1.1-8.6L39.2,0.2v72l10.6-0.1L49.9,72.2z"/>
		<path fill="#E6E7E8" d="M89,94.6c0,0.7,0.1,1.2,0.4,1.4c0.2,0.2,0.6,0.2,0.6,0.2h0l0.1,0l3.5,0l0,12.2h9.4l-0.3-16H90.6
			C89.9,92.5,89,92.9,89,94.6z"/>
		<path fill="#C4CC94" d="M77.1,84.2c-2.9-0.1-8.2-0.3-10.4-1c-2.3-0.7-7.1-3.3-11.4-5.6c-0.6-0.3-1.1-0.6-1.5-0.8
			c-1.1-0.6-3.3-1-4.2-1.1l-10.4,0.1V76l-3.3,0c-5.9,0-8.8,0-15.7,4c-6.7,3.9-8.9,14.3-9.2,15.6v12.9h66.7L77.1,84.2z"/>
		<path fill="#C4CC94" d="M127.5,88.7c0.9,2,1.4,3.9,1.8,5.1c0.1,0.3,0.2,0.7,0.3,0.9c0.6,0.9,1.6,1.9,3.1,2.9c0,0,4.5,3.5,5.5,5.8
			c0.6,1.4,1.2,3,1.4,5h24.7v-8.2c0-6-5.8-11.1-6.3-11.5L139.5,75C135.6,81.4,129.9,86.7,127.5,88.7z"/>
		<path fill="#E6E7E8" d="M7.4,112H1l17.2,19.4c0.6,0.5,3.9,3.1,7.4,4.6c4.1,1.8,49.8,20.3,50.3,20.5l1.9,0.8v-45.3H7.4V112z"/>
		<path fill="#E6E7E8" d="M175,128.5c7.4,3.4,16,0.2,16.7,0c0.9-0.4,9.1-4.1,17.1-3.5l-18.1-12.9h-23h0v1.3
			C167.9,116.6,169,125.7,175,128.5z"/>
		<path fill="#E6E7E8" d="M106.7,142.7h20.8c8,0,8.4-8.3,8.4-8.7l0-21.9h-29.2V142.7z"/>
		<path fill="#C4CC94" d="M167.8,108.4h17.7L166.8,95c0.6,1.6,1,3.4,1,5.2V108.4z"/>
		<path fill="#C4CC94" d="M125.5,85c0.1,0.1,0.2,0.3,0.3,0.4c2.5-2.2,7.5-7,10.8-12.7l-30.8-22.9l0.5,30.1h8.9
			C115.5,79.9,122.2,80.3,125.5,85z"/>
		<path fill="#E6E7E8" d="M134.8,104.9c-0.4-0.9-3.1-3.4-4.3-4.3c-0.7-0.5-2.8-2.1-4-3.9c-0.3-0.4-0.4-0.8-0.7-1.8
			c-0.5-1.8-1.4-5-3.3-7.8c-2.2-3.2-7.4-3.5-7.4-3.5l-8.8,0l0.4,25h29.1C135.6,107.2,135.2,106,134.8,104.9z"/>
		<path fill="#E6E7E8" d="M232.5,141.9l-9.3-6.6c-3.4-2.2-7-4.4-10.1-5.6c-8.2-3.3-19.8,2.1-19.9,2.2l-0.1,0
			c-0.4,0.2-10.6,4.1-19.6,0c-9.4-4.3-9.4-18.9-9.4-19.5l0-0.2h-4.7h-19.8v21.9c-0.1,4.3-2.8,12.2-12,12.2h-20.8v36.2
			c12.9,10.1,33.8,19.4,46.5,24.5c-0.2-0.2-0.4-0.4-0.6-0.6c-6.6-6.1-5.9-19.9-5-27.6c0.5-4.1,3.4-12.8,8.1-18.4
			c4.8-5.8,15.7-6.5,16.2-6.5l0.1,0h40.9c5.6,0,7.3-0.7,9.3-1.5c0.9-0.3,1.8-0.7,3.1-1.1c2.3-0.7,6-5.1,8.4-8.5
			C233.4,142.6,233,142.2,232.5,141.9z"/>
		<path fill="#C4CC94" d="M102.1,47.1L76.8,28.2c-0.6,2.3-0.9,4.4-0.7,5.6c0.6,3.4,2.5,17.4,3.5,24.7h22.7L102.1,47.1z"/>
		<path fill="#E6E7E8" d="M81.4,159l4.9,2.1l0.2,0.2c0.2,0.1,1.6,1.4,2.8,3.4c0.9,1.6,4.3,7.5,4.9,8.5c1.7,2,4.3,4.9,5,5.4
			c0.5,0.4,2.2,1.3,3.9,2.1v-68.5H81.4L81.4,159z"/>
		<path fill="#C4CC94" d="M86.2,82c1.3,0.7,4.2,2.2,5.7,2.2c1.1,0,4.9-1.7,7.8-3.3c0.4-0.3,1.4-0.9,3-1l-0.3-17.8H80.1
			c0.1,0.4,0.1,0.7,0.1,0.8l0,0.2l0.4,17.6c1.5,0.1,3.6,0.4,4.5,0.8C85.4,81.6,85.7,81.8,86.2,82z"/>
		<path fill="#C4CC94" d="M90,99.9c-0.6,0-1.9-0.1-3.1-1.2c-0.7-0.7-1.5-1.9-1.5-4.1c0-2.2,0.9-3.5,1.6-4.2c1.5-1.5,3.4-1.5,3.6-1.5
			h12.2l-0.1-5.3c-0.5,0.1-0.8,0.2-0.9,0.3l-0.2,0.2l-0.1,0c-1.6,0.9-7.1,3.8-9.6,3.8c-2.1,0-4.9-1.4-7.3-2.6
			c-0.3-0.2-0.6-0.3-0.8-0.4c-0.4-0.1-1.6-0.3-2.9-0.5l0.6,24.1h8.7L90,99.9z"/>
		<polygon fill="#E6E7E8" points="105.8,49.8 106,62.1 122.2,62.1 		"/>
		<g>
			<polygon fill="#C4CC94" points="99.2,108.5 103.1,108.5 103,103.4 99.2,103.4 			"/>
			<path fill="#C4CC94" d="M110.6,146.3h-3.9v36.2c1.2,1,2.5,1.9,3.9,2.8V146.3z"/>
			<rect x="106.7" y="112.1" fill="#C4CC94" width="3.9" height="30.5"/>
			<path fill="#C4CC94" d="M99.2,178.6c0.6,0.4,2.2,1.3,3.9,2.1v-68.5h-3.9V178.6z"/>
		</g>
	</g>
</g>
<g id="Layer_3" display="none">
	<g display="inline">
		<g>
			<path fill="#939598" d="M165.3,54.3h-2l-7.2-11.6l-0.1,0v11.6h-2v-15h2l7.2,11.6l0.1,0V39.3h2V54.3z"/>
		</g>
	</g>
	<g display="inline">
		<g>
			<path fill="#939598" d="M85.2,227.3c0,0.5-0.1,0.9-0.2,1.3c-0.2,0.4-0.4,0.7-0.7,1l1.2,1.1l-0.7,0.6l-1.3-1.3
				c-0.2,0.1-0.4,0.1-0.6,0.2c-0.2,0-0.4,0.1-0.6,0.1c-0.8,0-1.5-0.3-2-0.9c-0.5-0.6-0.8-1.3-0.8-2.2V226c0-0.9,0.3-1.6,0.8-2.2
				c0.5-0.6,1.2-0.9,2-0.9c0.9,0,1.6,0.3,2.1,0.9c0.5,0.6,0.8,1.3,0.8,2.2V227.3z M84.2,226c0-0.7-0.2-1.2-0.5-1.6
				c-0.4-0.4-0.8-0.6-1.4-0.6c-0.6,0-1,0.2-1.3,0.6c-0.3,0.4-0.5,1-0.5,1.6v1.3c0,0.7,0.2,1.2,0.5,1.6c0.3,0.4,0.8,0.6,1.3,0.6
				c0.6,0,1.1-0.2,1.4-0.6c0.3-0.4,0.5-1,0.5-1.6V226z"/>
			<path fill="#939598" d="M92.8,223.1v4.8c0,0.8-0.3,1.4-0.8,1.8c-0.5,0.4-1.2,0.6-2,0.6c-0.8,0-1.4-0.2-1.9-0.6
				c-0.5-0.4-0.7-1-0.7-1.8v-4.8h1v4.8c0,0.5,0.2,0.9,0.5,1.2s0.7,0.4,1.2,0.4c0.5,0,1-0.1,1.3-0.4c0.3-0.3,0.5-0.7,0.5-1.2v-4.8
				H92.8z"/>
			<path fill="#939598" d="M99.6,226.9h-3.3v2.5h3.8v0.8h-4.7v-7.1h4.7v0.8h-3.7v2.3h3.3V226.9z"/>
			<path fill="#939598" d="M106.4,226.9h-3.3v2.5h3.8v0.8h-4.7v-7.1h4.7v0.8h-3.7v2.3h3.3V226.9z"/>
			<path fill="#939598" d="M114.4,230.2h-1l-3.4-5.5l0,0v5.5h-1v-7.1h1l3.4,5.5l0,0v-5.5h1V230.2z"/>
			<path fill="#939598" d="M125.7,227.9L125.7,227.9c0,0.7-0.2,1.3-0.7,1.7s-1.1,0.7-1.9,0.7c-0.8,0-1.5-0.3-2-0.9
				c-0.5-0.6-0.8-1.3-0.8-2.2V226c0-0.9,0.3-1.6,0.8-2.2c0.5-0.6,1.2-0.9,2-0.9s1.4,0.2,1.9,0.6c0.5,0.4,0.7,1,0.7,1.7l0,0h-0.9
				c0-0.5-0.1-0.9-0.4-1.2c-0.3-0.3-0.7-0.4-1.2-0.4c-0.5,0-1,0.2-1.3,0.6c-0.3,0.4-0.5,1-0.5,1.6v1.3c0,0.6,0.2,1.2,0.5,1.6
				c0.3,0.4,0.7,0.6,1.3,0.6c0.5,0,0.9-0.1,1.2-0.4s0.4-0.7,0.4-1.2H125.7z"/>
			<path fill="#939598" d="M129,227.1v3.1h-1v-7.1h2.6c0.8,0,1.4,0.2,1.8,0.5c0.4,0.3,0.6,0.8,0.6,1.5c0,0.4-0.1,0.7-0.3,1
				c-0.2,0.3-0.5,0.5-0.8,0.6c0.4,0.1,0.7,0.3,0.8,0.6c0.2,0.3,0.3,0.6,0.3,1.1v0.7c0,0.2,0,0.4,0.1,0.6s0.1,0.3,0.3,0.4v0.1h-1
				c-0.1-0.1-0.2-0.3-0.2-0.5s-0.1-0.4-0.1-0.7v-0.6c0-0.4-0.1-0.7-0.3-0.9s-0.5-0.4-0.9-0.4H129z M129,226.4h1.5
				c0.5,0,0.9-0.1,1.2-0.3c0.2-0.2,0.4-0.5,0.4-0.9c0-0.4-0.1-0.7-0.3-0.9c-0.2-0.2-0.6-0.3-1.1-0.3H129V226.4z"/>
			<path fill="#939598" d="M139.8,226.9h-3.3v2.5h3.8v0.8h-4.7v-7.1h4.7v0.8h-3.7v2.3h3.3V226.9z"/>
			<path fill="#939598" d="M146.7,226.9h-3.3v2.5h3.8v0.8h-4.7v-7.1h4.7v0.8h-3.7v2.3h3.3V226.9z"/>
			<path fill="#939598" d="M151.1,227h-0.8v3.2h-1v-7.1h1v3.1h0.7l2.5-3.1h1.1l0,0l-2.8,3.4l3,3.6l0,0h-1.1L151.1,227z"/>
			<path fill="#939598" d="M102.8,242.2h-1v-7.1h1V242.2z"/>
			<path fill="#939598" d="M111,242.2h-1l-3.4-5.5l0,0v5.5h-1v-7.1h1l3.4,5.5l0,0v-5.5h1V242.2z"/>
			<path fill="#939598" d="M117.6,240.4c0-0.3-0.1-0.6-0.4-0.8s-0.7-0.4-1.3-0.6c-0.8-0.2-1.3-0.4-1.8-0.8c-0.4-0.3-0.6-0.8-0.6-1.3
				c0-0.6,0.2-1,0.7-1.4c0.5-0.4,1-0.6,1.8-0.6c0.8,0,1.4,0.2,1.9,0.6c0.5,0.4,0.7,0.9,0.7,1.5l0,0h-0.9c0-0.4-0.1-0.8-0.4-1
				c-0.3-0.3-0.7-0.4-1.2-0.4c-0.5,0-0.8,0.1-1.1,0.3c-0.3,0.2-0.4,0.5-0.4,0.8c0,0.3,0.1,0.6,0.4,0.8c0.3,0.2,0.7,0.4,1.3,0.5
				c0.7,0.2,1.3,0.5,1.7,0.8c0.4,0.4,0.6,0.8,0.6,1.3c0,0.6-0.2,1-0.7,1.4c-0.5,0.3-1.1,0.5-1.8,0.5c-0.7,0-1.3-0.2-1.9-0.6
				c-0.5-0.4-0.8-0.9-0.8-1.5l0,0h0.9c0,0.5,0.2,0.8,0.5,1c0.3,0.2,0.8,0.4,1.2,0.4c0.5,0,0.9-0.1,1.2-0.3S117.6,240.7,117.6,240.4z
				"/>
			<path fill="#939598" d="M125.2,238.9h-3.3v2.5h3.8v0.8H121v-7.1h4.7v0.8h-3.7v2.3h3.3V238.9z"/>
			<path fill="#939598" d="M132.7,235.8h-2.3v6.4h-1v-6.4h-2.3v-0.8h5.5V235.8z"/>
		</g>
	</g>
	<polygon display="inline" fill="#939598" points="155.7,34.5 159.7,28.1 163.6,34.5 	"/>
	<g display="inline">
		<path fill="#C4CC94" d="M49.9,72.2c0.4,0,3.6,0.4,5.6,1.5c0.3,0.2,0.8,0.5,1.5,0.8c2.6,1.4,8.6,4.7,10.7,5.3
			c1.7,0.5,6.3,0.7,9.3,0.8l-0.4-17.3c-0.2-1.7-3.3-24.4-4-28.8c-0.4-2.1,0.2-5.4,1.1-8.6L39.2,0.2v72l10.6-0.1L49.9,72.2z"/>
		<path fill="#E6E7E8" d="M89,94.6c0,0.7,0.1,1.2,0.4,1.4c0.2,0.2,0.6,0.2,0.6,0.2h0l0.1,0l3.5,0l0,12.2h9.4l-0.3-16H90.6
			C89.9,92.5,89,92.9,89,94.6z"/>
		<path fill="#C4CC94" d="M77.1,84.2c-2.9-0.1-8.2-0.3-10.4-1c-2.3-0.7-7.1-3.3-11.4-5.6c-0.6-0.3-1.1-0.6-1.5-0.8
			c-1.1-0.6-3.3-1-4.2-1.1l-10.4,0.1V76l-3.3,0c-5.9,0-8.8,0-15.7,4c-6.7,3.9-8.9,14.3-9.2,15.6v12.9h66.7L77.1,84.2z"/>
		<path fill="#C4CC94" d="M127.5,88.7c0.9,2,1.4,3.9,1.8,5.1c0.1,0.3,0.2,0.7,0.3,0.9c0.6,0.9,1.6,1.9,3.1,2.9c0,0,4.5,3.5,5.5,5.8
			c0.6,1.4,1.2,3,1.4,5h24.7v-8.2c0-6-5.8-11.1-6.3-11.5L139.5,75C135.6,81.4,129.9,86.7,127.5,88.7z"/>
		<path fill="#E6E7E8" d="M7.4,112H1l17.2,19.4c0.6,0.5,3.9,3.1,7.4,4.6c4.1,1.8,49.8,20.3,50.3,20.5l1.9,0.8v-45.3H7.4V112z"/>
		<path fill="#E6E7E8" d="M175,128.5c7.4,3.4,16,0.2,16.7,0c0.9-0.4,9.1-4.1,17.1-3.5l-18.1-12.9h-23h0v1.3
			C167.9,116.6,169,125.7,175,128.5z"/>
		<path fill="#E6E7E8" d="M106.7,142.7h20.8c8,0,8.4-8.3,8.4-8.7l0-21.9h-29.2V142.7z"/>
		<path fill="#C4CC94" d="M167.8,108.4h17.7L166.8,95c0.6,1.6,1,3.4,1,5.2V108.4z"/>
		<path fill="#C4CC94" d="M125.5,85c0.1,0.1,0.2,0.3,0.3,0.4c2.5-2.2,7.5-7,10.8-12.7l-30.8-22.9l0.5,30.1h8.9
			C115.5,79.9,122.2,80.3,125.5,85z"/>
		<path fill="#E6E7E8" d="M134.8,104.9c-0.4-0.9-3.1-3.4-4.3-4.3c-0.7-0.5-2.8-2.1-4-3.9c-0.3-0.4-0.4-0.8-0.7-1.8
			c-0.5-1.8-1.4-5-3.3-7.8c-2.2-3.2-7.4-3.5-7.4-3.5l-8.8,0l0.4,25h29.1C135.6,107.2,135.2,106,134.8,104.9z"/>
		<path fill="#E6E7E8" d="M232.5,141.9l-9.3-6.6c-3.4-2.2-7-4.4-10.1-5.6c-8.2-3.3-19.8,2.1-19.9,2.2l-0.1,0
			c-0.4,0.2-10.6,4.1-19.6,0c-9.4-4.3-9.4-18.9-9.4-19.5l0-0.2h-4.7h-19.8v21.9c-0.1,4.3-2.8,12.2-12,12.2h-20.8v36.2
			c12.9,10.1,33.8,19.4,46.5,24.5c-0.2-0.2-0.4-0.4-0.6-0.6c-6.6-6.1-5.9-19.9-5-27.6c0.5-4.1,3.4-12.8,8.1-18.4
			c4.8-5.8,15.7-6.5,16.2-6.5l0.1,0h40.9c5.6,0,7.3-0.7,9.3-1.5c0.9-0.3,1.8-0.7,3.1-1.1c2.3-0.7,6-5.1,8.4-8.5
			C233.4,142.6,233,142.2,232.5,141.9z"/>
		<path fill="#758339" d="M102.1,47.1L76.8,28.2c-0.6,2.3-0.9,4.4-0.7,5.6c0.6,3.4,2.5,17.4,3.5,24.7h22.7L102.1,47.1z"/>
		<path fill="#E6E7E8" d="M81.4,159l4.9,2.1l0.2,0.2c0.2,0.1,1.6,1.4,2.8,3.4c0.9,1.6,4.3,7.5,4.9,8.5c1.7,2,4.3,4.9,5,5.4
			c0.5,0.4,2.2,1.3,3.9,2.1v-68.5H81.4L81.4,159z"/>
		<path fill="#C4CC94" d="M86.2,82c1.3,0.7,4.2,2.2,5.7,2.2c1.1,0,4.9-1.7,7.8-3.3c0.4-0.3,1.4-0.9,3-1l-0.3-17.8H80.1
			c0.1,0.4,0.1,0.7,0.1,0.8l0,0.2l0.4,17.6c1.5,0.1,3.6,0.4,4.5,0.8C85.4,81.6,85.7,81.8,86.2,82z"/>
		<path fill="#C4CC94" d="M90,99.9c-0.6,0-1.9-0.1-3.1-1.2c-0.7-0.7-1.5-1.9-1.5-4.1c0-2.2,0.9-3.5,1.6-4.2c1.5-1.5,3.4-1.5,3.6-1.5
			h12.2l-0.1-5.3c-0.5,0.1-0.8,0.2-0.9,0.3l-0.2,0.2l-0.1,0c-1.6,0.9-7.1,3.8-9.6,3.8c-2.1,0-4.9-1.4-7.3-2.6
			c-0.3-0.2-0.6-0.3-0.8-0.4c-0.4-0.1-1.6-0.3-2.9-0.5l0.6,24.1h8.7L90,99.9z"/>
		<polygon fill="#E6E7E8" points="105.8,49.8 106,62.1 122.2,62.1 		"/>
		<g>
			<polygon fill="#C4CC94" points="99.2,108.5 103.1,108.5 103,103.4 99.2,103.4 			"/>
			<path fill="#C4CC94" d="M110.6,146.3h-3.9v36.2c1.2,1,2.5,1.9,3.9,2.8V146.3z"/>
			<rect x="106.7" y="112.1" fill="#C4CC94" width="3.9" height="30.5"/>
			<path fill="#C4CC94" d="M99.2,178.6c0.6,0.4,2.2,1.3,3.9,2.1v-68.5h-3.9V178.6z"/>
		</g>
	</g>
</g>
<g id="Layer_4">
	<g>
		<g>
			<path fill="#939598" d="M165.3,54.3h-2l-7.2-11.6l-0.1,0v11.6h-2v-15h2l7.2,11.6l0.1,0V39.3h2V54.3z"/>
		</g>
	</g>
	<g>
		<g>
			<path fill="#939598" d="M85.2,227.3c0,0.5-0.1,0.9-0.2,1.3c-0.2,0.4-0.4,0.7-0.7,1l1.2,1.1l-0.7,0.6l-1.3-1.3
				c-0.2,0.1-0.4,0.1-0.6,0.2c-0.2,0-0.4,0.1-0.6,0.1c-0.8,0-1.5-0.3-2-0.9c-0.5-0.6-0.8-1.3-0.8-2.2V226c0-0.9,0.3-1.6,0.8-2.2
				c0.5-0.6,1.2-0.9,2-0.9c0.9,0,1.6,0.3,2.1,0.9c0.5,0.6,0.8,1.3,0.8,2.2V227.3z M84.2,226c0-0.7-0.2-1.2-0.5-1.6
				c-0.4-0.4-0.8-0.6-1.4-0.6c-0.6,0-1,0.2-1.3,0.6c-0.3,0.4-0.5,1-0.5,1.6v1.3c0,0.7,0.2,1.2,0.5,1.6c0.3,0.4,0.8,0.6,1.3,0.6
				c0.6,0,1.1-0.2,1.4-0.6c0.3-0.4,0.5-1,0.5-1.6V226z"/>
			<path fill="#939598" d="M92.8,223.1v4.8c0,0.8-0.3,1.4-0.8,1.8c-0.5,0.4-1.2,0.6-2,0.6c-0.8,0-1.4-0.2-1.9-0.6
				c-0.5-0.4-0.7-1-0.7-1.8v-4.8h1v4.8c0,0.5,0.2,0.9,0.5,1.2s0.7,0.4,1.2,0.4c0.5,0,1-0.1,1.3-0.4c0.3-0.3,0.5-0.7,0.5-1.2v-4.8
				H92.8z"/>
			<path fill="#939598" d="M99.6,226.9h-3.3v2.5h3.8v0.8h-4.7v-7.1h4.7v0.8h-3.7v2.3h3.3V226.9z"/>
			<path fill="#939598" d="M106.4,226.9h-3.3v2.5h3.8v0.8h-4.7v-7.1h4.7v0.8h-3.7v2.3h3.3V226.9z"/>
			<path fill="#939598" d="M114.4,230.2h-1l-3.4-5.5l0,0v5.5h-1v-7.1h1l3.4,5.5l0,0v-5.5h1V230.2z"/>
			<path fill="#939598" d="M125.7,227.9L125.7,227.9c0,0.7-0.2,1.3-0.7,1.7s-1.1,0.7-1.9,0.7c-0.8,0-1.5-0.3-2-0.9
				c-0.5-0.6-0.8-1.3-0.8-2.2V226c0-0.9,0.3-1.6,0.8-2.2c0.5-0.6,1.2-0.9,2-0.9s1.4,0.2,1.9,0.6c0.5,0.4,0.7,1,0.7,1.7l0,0h-0.9
				c0-0.5-0.1-0.9-0.4-1.2c-0.3-0.3-0.7-0.4-1.2-0.4c-0.5,0-1,0.2-1.3,0.6c-0.3,0.4-0.5,1-0.5,1.6v1.3c0,0.6,0.2,1.2,0.5,1.6
				c0.3,0.4,0.7,0.6,1.3,0.6c0.5,0,0.9-0.1,1.2-0.4s0.4-0.7,0.4-1.2H125.7z"/>
			<path fill="#939598" d="M129,227.1v3.1h-1v-7.1h2.6c0.8,0,1.4,0.2,1.8,0.5c0.4,0.3,0.6,0.8,0.6,1.5c0,0.4-0.1,0.7-0.3,1
				c-0.2,0.3-0.5,0.5-0.8,0.6c0.4,0.1,0.7,0.3,0.8,0.6c0.2,0.3,0.3,0.6,0.3,1.1v0.7c0,0.2,0,0.4,0.1,0.6s0.1,0.3,0.3,0.4v0.1h-1
				c-0.1-0.1-0.2-0.3-0.2-0.5s-0.1-0.4-0.1-0.7v-0.6c0-0.4-0.1-0.7-0.3-0.9s-0.5-0.4-0.9-0.4H129z M129,226.4h1.5
				c0.5,0,0.9-0.1,1.2-0.3c0.2-0.2,0.4-0.5,0.4-0.9c0-0.4-0.1-0.7-0.3-0.9c-0.2-0.2-0.6-0.3-1.1-0.3H129V226.4z"/>
			<path fill="#939598" d="M139.8,226.9h-3.3v2.5h3.8v0.8h-4.7v-7.1h4.7v0.8h-3.7v2.3h3.3V226.9z"/>
			<path fill="#939598" d="M146.7,226.9h-3.3v2.5h3.8v0.8h-4.7v-7.1h4.7v0.8h-3.7v2.3h3.3V226.9z"/>
			<path fill="#939598" d="M151.1,227h-0.8v3.2h-1v-7.1h1v3.1h0.7l2.5-3.1h1.1l0,0l-2.8,3.4l3,3.6l0,0h-1.1L151.1,227z"/>
			<path fill="#939598" d="M102.8,242.2h-1v-7.1h1V242.2z"/>
			<path fill="#939598" d="M111,242.2h-1l-3.4-5.5l0,0v5.5h-1v-7.1h1l3.4,5.5l0,0v-5.5h1V242.2z"/>
			<path fill="#939598" d="M117.6,240.4c0-0.3-0.1-0.6-0.4-0.8s-0.7-0.4-1.3-0.6c-0.8-0.2-1.3-0.4-1.8-0.8c-0.4-0.3-0.6-0.8-0.6-1.3
				c0-0.6,0.2-1,0.7-1.4c0.5-0.4,1-0.6,1.8-0.6c0.8,0,1.4,0.2,1.9,0.6c0.5,0.4,0.7,0.9,0.7,1.5l0,0h-0.9c0-0.4-0.1-0.8-0.4-1
				c-0.3-0.3-0.7-0.4-1.2-0.4c-0.5,0-0.8,0.1-1.1,0.3c-0.3,0.2-0.4,0.5-0.4,0.8c0,0.3,0.1,0.6,0.4,0.8c0.3,0.2,0.7,0.4,1.3,0.5
				c0.7,0.2,1.3,0.5,1.7,0.8c0.4,0.4,0.6,0.8,0.6,1.3c0,0.6-0.2,1-0.7,1.4c-0.5,0.3-1.1,0.5-1.8,0.5c-0.7,0-1.3-0.2-1.9-0.6
				c-0.5-0.4-0.8-0.9-0.8-1.5l0,0h0.9c0,0.5,0.2,0.8,0.5,1c0.3,0.2,0.8,0.4,1.2,0.4c0.5,0,0.9-0.1,1.2-0.3S117.6,240.7,117.6,240.4z
				"/>
			<path fill="#939598" d="M125.2,238.9h-3.3v2.5h3.8v0.8H121v-7.1h4.7v0.8h-3.7v2.3h3.3V238.9z"/>
			<path fill="#939598" d="M132.7,235.8h-2.3v6.4h-1v-6.4h-2.3v-0.8h5.5V235.8z"/>
		</g>
	</g>
	<polygon fill="#939598" points="155.7,34.5 159.7,28.1 163.6,34.5 	"/>
	<g>
		<path fill="#C4CC94" d="M49.9,72.2c0.4,0,3.6,0.4,5.6,1.5c0.3,0.2,0.8,0.5,1.5,0.8c2.6,1.4,8.6,4.7,10.7,5.3
			c1.7,0.5,6.3,0.7,9.3,0.8l-0.4-17.3c-0.2-1.7-3.3-24.4-4-28.8c-0.4-2.1,0.2-5.4,1.1-8.6L39.2,0.2v72l10.6-0.1L49.9,72.2z"/>
		<path fill="#E6E7E8" d="M89,94.6c0,0.7,0.1,1.2,0.4,1.4c0.2,0.2,0.6,0.2,0.6,0.2h0l0.1,0l3.5,0l0,12.2h9.4l-0.3-16H90.6
			C89.9,92.5,89,92.9,89,94.6z"/>
		<path fill="#C4CC94" d="M77.1,84.2c-2.9-0.1-8.2-0.3-10.4-1c-2.3-0.7-7.1-3.3-11.4-5.6c-0.6-0.3-1.1-0.6-1.5-0.8
			c-1.1-0.6-3.3-1-4.2-1.1l-10.4,0.1V76l-3.3,0c-5.9,0-8.8,0-15.7,4c-6.7,3.9-8.9,14.3-9.2,15.6v12.9h66.7L77.1,84.2z"/>
		<path fill="#C4CC94" d="M127.5,88.7c0.9,2,1.4,3.9,1.8,5.1c0.1,0.3,0.2,0.7,0.3,0.9c0.6,0.9,1.6,1.9,3.1,2.9c0,0,4.5,3.5,5.5,5.8
			c0.6,1.4,1.2,3,1.4,5h24.7v-8.2c0-6-5.8-11.1-6.3-11.5L139.5,75C135.6,81.4,129.9,86.7,127.5,88.7z"/>
		<path fill="#E6E7E8" d="M7.4,112H1l17.2,19.4c0.6,0.5,3.9,3.1,7.4,4.6c4.1,1.8,49.8,20.3,50.3,20.5l1.9,0.8v-45.3H7.4V112z"/>
		<path fill="#E6E7E8" d="M175,128.5c7.4,3.4,16,0.2,16.7,0c0.9-0.4,9.1-4.1,17.1-3.5l-18.1-12.9h-23h0v1.3
			C167.9,116.6,169,125.7,175,128.5z"/>
		<path fill="#E6E7E8" d="M106.7,142.7h20.8c8,0,8.4-8.3,8.4-8.7l0-21.9h-29.2V142.7z"/>
		<path fill="#C4CC94" d="M167.8,108.4h17.7L166.8,95c0.6,1.6,1,3.4,1,5.2V108.4z"/>
		<path fill="#C4CC94" d="M125.5,85c0.1,0.1,0.2,0.3,0.3,0.4c2.5-2.2,7.5-7,10.8-12.7l-30.8-22.9l0.5,30.1h8.9
			C115.5,79.9,122.2,80.3,125.5,85z"/>
		<path fill="#E6E7E8" d="M134.8,104.9c-0.4-0.9-3.1-3.4-4.3-4.3c-0.7-0.5-2.8-2.1-4-3.9c-0.3-0.4-0.4-0.8-0.7-1.8
			c-0.5-1.8-1.4-5-3.3-7.8c-2.2-3.2-7.4-3.5-7.4-3.5l-8.8,0l0.4,25h29.1C135.6,107.2,135.2,106,134.8,104.9z"/>
		<path fill="#E6E7E8" d="M232.5,141.9l-9.3-6.6c-3.4-2.2-7-4.4-10.1-5.6c-8.2-3.3-19.8,2.1-19.9,2.2l-0.1,0
			c-0.4,0.2-10.6,4.1-19.6,0c-9.4-4.3-9.4-18.9-9.4-19.5l0-0.2h-4.7h-19.8v21.9c-0.1,4.3-2.8,12.2-12,12.2h-20.8v36.2
			c12.9,10.1,33.8,19.4,46.5,24.5c-0.2-0.2-0.4-0.4-0.6-0.6c-6.6-6.1-5.9-19.9-5-27.6c0.5-4.1,3.4-12.8,8.1-18.4
			c4.8-5.8,15.7-6.5,16.2-6.5l0.1,0h40.9c5.6,0,7.3-0.7,9.3-1.5c0.9-0.3,1.8-0.7,3.1-1.1c2.3-0.7,6-5.1,8.4-8.5
			C233.4,142.6,233,142.2,232.5,141.9z"/>
		<path fill="#C4CC94" d="M102.1,47.1L76.8,28.2c-0.6,2.3-0.9,4.4-0.7,5.6c0.6,3.4,2.5,17.4,3.5,24.7h22.7L102.1,47.1z"/>
		<path fill="#E6E7E8" d="M81.4,159l4.9,2.1l0.2,0.2c0.2,0.1,1.6,1.4,2.8,3.4c0.9,1.6,4.3,7.5,4.9,8.5c1.7,2,4.3,4.9,5,5.4
			c0.5,0.4,2.2,1.3,3.9,2.1v-68.5H81.4L81.4,159z"/>
		<path fill="#758339" d="M86.2,82c1.3,0.7,4.2,2.2,5.7,2.2c1.1,0,4.9-1.7,7.8-3.3c0.4-0.3,1.4-0.9,3-1l-0.3-17.8H80.1
			c0.1,0.4,0.1,0.7,0.1,0.8l0,0.2l0.4,17.6c1.5,0.1,3.6,0.4,4.5,0.8C85.4,81.6,85.7,81.8,86.2,82z"/>
		<path fill="#C4CC94" d="M90,99.9c-0.6,0-1.9-0.1-3.1-1.2c-0.7-0.7-1.5-1.9-1.5-4.1c0-2.2,0.9-3.5,1.6-4.2c1.5-1.5,3.4-1.5,3.6-1.5
			h12.2l-0.1-5.3c-0.5,0.1-0.8,0.2-0.9,0.3l-0.2,0.2l-0.1,0c-1.6,0.9-7.1,3.8-9.6,3.8c-2.1,0-4.9-1.4-7.3-2.6
			c-0.3-0.2-0.6-0.3-0.8-0.4c-0.4-0.1-1.6-0.3-2.9-0.5l0.6,24.1h8.7L90,99.9z"/>
		<polygon fill="#E6E7E8" points="105.8,49.8 106,62.1 122.2,62.1 		"/>
		<g>
			<polygon fill="#C4CC94" points="99.2,108.5 103.1,108.5 103,103.4 99.2,103.4 			"/>
			<path fill="#C4CC94" d="M110.6,146.3h-3.9v36.2c1.2,1,2.5,1.9,3.9,2.8V146.3z"/>
			<rect x="106.7" y="112.1" fill="#C4CC94" width="3.9" height="30.5"/>
			<path fill="#C4CC94" d="M99.2,178.6c0.6,0.4,2.2,1.3,3.9,2.1v-68.5h-3.9V178.6z"/>
		</g>
	</g>
</g>
</svg>
