<?xml version="1.0" encoding="utf-8"?>
<!-- Generator: Adobe Illustrator 19.1.0, SVG Export Plug-In . SVG Version: 6.00 Build 0)  -->
<!DOCTYPE svg PUBLIC "-//W3C//DTD SVG 1.1//EN" "http://www.w3.org/Graphics/SVG/1.1/DTD/svg11.dtd">
<svg version="1.1" xmlns="http://www.w3.org/2000/svg" xmlns:xlink="http://www.w3.org/1999/xlink" x="0px" y="0px"
	 viewBox="0 0 17 14" enable-background="new 0 0 17 14" xml:space="preserve">
<g id="Layer_1" display="none">
	<g display="inline">
		<path d="M2,1.1c0,0,2.4,3.1,6.5,3.4c0,0-0.6-1.9,1.2-3.3c1.7-1.4,3.8-0.2,4.2,0.3c0,0,1.2-0.2,2-0.8c0,0-0.3,1.1-1.3,1.7
			c0,0,1.2-0.2,1.7-0.5c0,0-0.6,0.9-1.6,1.6c0,0,0.4,3.9-3,7.2c-3.4,3.2-8.9,2.6-10.9,0.9c0,0,2.7,0.3,4.6-1.3c0,0-2.3,0-2.9-2.2
			c0,0,1.1,0.1,1.3-0.1c0,0-2.4-0.6-2.5-3.1c0,0,0.7,0.4,1.4,0.4C2.9,5.3,0.6,3.6,2,1.1z"/>
	</g>
</g>
<g id="Layer_2">
	<g>
		<path d="M5.5,5.3h2V3.4c0,0-0.1-1.2,0.8-2.1c0.9-0.9,2.1-0.8,3.9-0.7v2h-1.3c0,0-0.5,0-0.8,0.3C9.8,3.3,9.8,3.7,9.8,3.8v1.5h2.2
			l-0.3,2.3h-2v5.9H7.5V7.5h-2V5.3z"/>
	</g>
</g>
</svg>
